<?xml version="1.0" encoding="UTF-8"?>
<session version="1.0">
<refactoring accessors="true" comment="Delete element from project &apos;OpenCV Sample - color-blob-detection&apos;&#x0D;&#x0A;- Original project: &apos;OpenCV Sample - color-blob-detection&apos;&#x0D;&#x0A;- Original element: &apos;org.opencv.samples.colorblobdetect.ColorBlobDetectionActivity.java&apos;" description="Delete element" element1="/src&lt;org.opencv.samples.colorblobdetect{ColorBlobDetectionActivity.java" elements="1" flags="589830" id="org.eclipse.jdt.ui.delete" resources="0" stamp="1440788508995" subPackages="false" version="1.0"/>
</session>